%YAML 1.1
%TAG !u! tag:unity3d.com,2011:
--- !u!114 &11400000
MonoBehaviour:
  m_ObjectHideFlags: 0
  m_CorrespondingSourceObject: {fileID: 0}
  m_PrefabInstance: {fileID: 0}
  m_PrefabAsset: {fileID: 0}
  m_GameObject: {fileID: 0}
  m_Enabled: 1
  m_EditorHideFlags: 1
  m_Script: {fileID: 11500000, guid: 1ce3dbb0c911b674f9a5ff2bcae6c765, type: 3}
  m_Name: Item
  m_EditorClassIdentifier: 
  Name: Item
  Health: 44.4
  texture: {fileID: 21300000, guid: eb4847e36a757e64faafb9ee2e3233de, type: 3}
  collider: 0
  Points: 76.3
